IGUI_EN = {
    IGUI_QNW_IA_ItemAffix = "ItemAffix",
    IGUI_QNW_IA_MissingPreMod = "ไม่พบม็อดโมดูลย่อย [QNWLibrary] จึงไม่สามารถใช้งานไอเท็ม [%1]  ได้",
    IGUI_QNW_IA_NoMaterial = "ต้องนำวัตถุดิบในการอัพเกรดกับไอเท็มที่ต้องการอัพเกรด (เสื้อผ้า อาวุธ หรือหนังสือที่อ่านได้ครั้งเดียว) ใส่เข้าไปในไมโครเวฟ",
    IGUI_QNW_IA_NoRead = "จำเป็นต้องอ่านนิตยาสารก่อน",
    IGUI_QNW_IA_Unknown = "ไม่ทราบ",
    IGUI_QNW_IA_NotIdentified = "ไม่ได้สำรวจ",
    IGUI_QNW_IA_Identified = "สำรวจแล้ว",
    IGUI_QNW_IA_Invalid = "ใช้ไม่ได้",
    IGUI_QNW_IA_Permanent = "เอฟเฟกต์ถาวร",
    IGUI_QNW_IA_Day = "วัน",
    IGUI_QNW_IA_Hour = "ชั่วโมง",
    IGUI_QNW_IA_MinDamage_1 = "ดาเมจขั้นต่ำ",
    IGUI_QNW_IA_MinDamage_1_Desc = "ดาเมจขั้นต่ำ -0.4",
    IGUI_QNW_IA_MinDamage_2 = "ดาเมจขั้นต่ำ",
    IGUI_QNW_IA_MinDamage_2_Desc = "ดาเมจขั้นต่ำ -0.2",
    IGUI_QNW_IA_MinDamage_3 = "ดาเมจขั้นต่ำ",
    IGUI_QNW_IA_MinDamage_3_Desc = "ดาเมจขั้นต่ำ +0.2",
    IGUI_QNW_IA_MinDamage_4 = "ดาเมจขั้นต่ำ",
    IGUI_QNW_IA_MinDamage_4_Desc = "ดาเมจขั้นต่ำ +0.4",
    IGUI_QNW_IA_MinDamage_5 = "ดาเมจขั้นต่ำ",
    IGUI_QNW_IA_MinDamage_5_Desc = "ดาเมจขั้นต่ำ +1",
    IGUI_QNW_IA_MinDamage_6 = "ดาเมจขั้นต่ำ",
    IGUI_QNW_IA_MinDamage_6_Desc = "ดาเมจขั้นต่ำ +2",
    IGUI_QNW_IA_MaxDamage_1 = "ดาเมจสูงสุด",
    IGUI_QNW_IA_MaxDamage_1_Desc = "ดาเมจสูงสุด -0.4",
    IGUI_QNW_IA_MaxDamage_2 = "ดาเมจสูงสุด",
    IGUI_QNW_IA_MaxDamage_2_Desc = "ดาเมจสูงสุด -0.2",
    IGUI_QNW_IA_MaxDamage_3 = "ดาเมจสูงสุด",
    IGUI_QNW_IA_MaxDamage_3_Desc = "ดาเมจสูงสุด +0.2",
    IGUI_QNW_IA_MaxDamage_4 = "ดาเมจสูงสุด",
    IGUI_QNW_IA_MaxDamage_4_Desc = "ดาเมจสูงสุด +0.4",
    IGUI_QNW_IA_MaxDamage_5 = "ดาเมจสูงสุด",
    IGUI_QNW_IA_MaxDamage_5_Desc = "ดาเมจสูงสุด +1",
    IGUI_QNW_IA_MaxDamage_6 = "ดาเมจสูงสุด",
    IGUI_QNW_IA_MaxDamage_6_Desc = "ดาเมจสูงสุด +2",
    IGUI_QNW_IA_DoorDamage_1 = "ดาเมจต่อบานประตู",
    IGUI_QNW_IA_DoorDamage_1_Desc = "ดาเมจต่อบานประตู -10",
    IGUI_QNW_IA_DoorDamage_2 = "ดาเมจต่อบานประตู",
    IGUI_QNW_IA_DoorDamage_2_Desc = "ดาเมจต่อบานประตู -5",
    IGUI_QNW_IA_DoorDamage_3 = "ดาเมจต่อบานประตู",
    IGUI_QNW_IA_DoorDamage_3_Desc = "ดาเมจต่อบานประตู +5",
    IGUI_QNW_IA_DoorDamage_4 = "ดาเมจต่อบานประตู",
    IGUI_QNW_IA_DoorDamage_4_Desc = "ดาเมจต่อบานประตู +10",
    IGUI_QNW_IA_DoorDamage_5 = "ดาเมจต่อบานประตู",
    IGUI_QNW_IA_DoorDamage_5_Desc = "ดาเมจต่อบานประตู +15",
    IGUI_QNW_IA_DoorDamage_6 = "ดาเมจต่อบานประตู",
    IGUI_QNW_IA_DoorDamage_6_Desc = "ดาเมจต่อบานประตู +20",
    IGUI_QNW_IA_TreeDamage_1 = "ดาเมจต่อต้นไม้",
    IGUI_QNW_IA_TreeDamage_1_Desc = "ดาเมจต่อต้นไม้ -10",
    IGUI_QNW_IA_TreeDamage_2 = "ดาเมจต่อต้นไม้",
    IGUI_QNW_IA_TreeDamage_2_Desc = "ดาเมจต่อต้นไม้ -5",
    IGUI_QNW_IA_TreeDamage_3 = "ดาเมจต่อต้นไม้",
    IGUI_QNW_IA_TreeDamage_3_Desc = "ดาเมจต่อต้นไม้ +5",
    IGUI_QNW_IA_TreeDamage_4 = "ดาเมจต่อต้นไม้",
    IGUI_QNW_IA_TreeDamage_4_Desc = "ดาเมจต่อต้นไม้ +10",
    IGUI_QNW_IA_TreeDamage_5 = "ดาเมจต่อต้นไม้",
    IGUI_QNW_IA_TreeDamage_5_Desc = "ดาเมจต่อต้นไม้ +15",
    IGUI_QNW_IA_TreeDamage_6 = "ดาเมจต่อต้นไม้",
    IGUI_QNW_IA_TreeDamage_6_Desc = "ดาเมจต่อต้นไม้ +20",
    IGUI_QNW_IA_MaxRange_1 = "ระยะการโจมตี",
    IGUI_QNW_IA_MaxRange_1_Desc = "ระยะการโจมตี -0.5",
    IGUI_QNW_IA_MaxRange_2 = "ระยะการโจมตี",
    IGUI_QNW_IA_MaxRange_2_Desc = "ระยะการโจมตี -0.25",
    IGUI_QNW_IA_MaxRange_3 = "ระยะการโจมตี",
    IGUI_QNW_IA_MaxRange_3_Desc = "ระยะการโจมตี +0.25",
    IGUI_QNW_IA_MaxRange_4 = "ระยะการโจมตี",
    IGUI_QNW_IA_MaxRange_4_Desc = "ระยะการโจมตี +0.5",
    IGUI_QNW_IA_MaxRange_5 = "ระยะการโจมตี",
    IGUI_QNW_IA_MaxRange_5_Desc = "ระยะการโจมตี +1",
    IGUI_QNW_IA_MaxRange_6 = "ระยะการโจมตี",
    IGUI_QNW_IA_MaxRange_6_Desc = "ระยะการโจมตี +2",
    IGUI_QNW_IA_MaxRangeR_1 = "ระยะการโจมตี",
    IGUI_QNW_IA_MaxRangeR_1_Desc = "ระยะการโจมตี -5",
    IGUI_QNW_IA_MaxRangeR_2 = "ระยะการโจมตี",
    IGUI_QNW_IA_MaxRangeR_2_Desc = "ระยะการโจมตี -2",
    IGUI_QNW_IA_MaxRangeR_3 = "ระยะการโจมตี",
    IGUI_QNW_IA_MaxRangeR_3_Desc = "ระยะการโจมตี +2",
    IGUI_QNW_IA_MaxRangeR_4 = "ระยะการโจมตี",
    IGUI_QNW_IA_MaxRangeR_4_Desc = "ระยะการโจมตี +5",
    IGUI_QNW_IA_MaxRangeR_5 = "ระยะการโจมตี",
    IGUI_QNW_IA_MaxRangeR_5_Desc = "ระยะการโจมตี +10",
    IGUI_QNW_IA_MaxRangeR_6 = "ระยะการโจมตี",
    IGUI_QNW_IA_MaxRangeR_6_Desc = "ระยะการโจมตี +20",
    IGUI_QNW_IA_MinAngle_1 = "รัศมีการโจมตี",
    IGUI_QNW_IA_MinAngle_1_Desc = "รัศมีการโจมตี -72°",
    IGUI_QNW_IA_MinAngle_2 = "รัศมีการโจมตี",
    IGUI_QNW_IA_MinAngle_2_Desc = "รัศมีการโจมตี -36°",
    IGUI_QNW_IA_MinAngle_3 = "รัศมีการโจมตี",
    IGUI_QNW_IA_MinAngle_3_Desc = "รัศมีการโจมตี +36°",
    IGUI_QNW_IA_MinAngle_4 = "รัศมีการโจมตี",
    IGUI_QNW_IA_MinAngle_4_Desc = "รัศมีการโจมตี +72°",
    IGUI_QNW_IA_MinAngle_5 = "รัศมีการโจมตี",
    IGUI_QNW_IA_MinAngle_5_Desc = "รัศมีการโจมตี +108°",
    IGUI_QNW_IA_MinAngle_6 = "รัศมีการโจมตี",
    IGUI_QNW_IA_MinAngle_6_Desc = "รัศมีการโจมตี +144",
    IGUI_QNW_IA_BaseSpeed_1 = "ความเร็วในการโจมตีตั้งต้น",
    IGUI_QNW_IA_BaseSpeed_1_Desc = "ความเร็วในการโจมตีตั้งต้น -50%",
    IGUI_QNW_IA_BaseSpeed_2 = "ความเร็วในการโจมตีตั้งต้น",
    IGUI_QNW_IA_BaseSpeed_2_Desc = "ความเร็วในการโจมตีตั้งต้น -25%",
    IGUI_QNW_IA_BaseSpeed_3 = "ความเร็วในการโจมตีตั้งต้น",
    IGUI_QNW_IA_BaseSpeed_3_Desc = "ความเร็วในการโจมตีตั้งต้น +25%",
    IGUI_QNW_IA_BaseSpeed_4 = "ความเร็วในการโจมตีตั้งต้น",
    IGUI_QNW_IA_BaseSpeed_4_Desc = "ความเร็วในการโจมตีตั้งต้น +50%",
    IGUI_QNW_IA_BaseSpeed_5 = "ความเร็วในการโจมตีตั้งต้น",
    IGUI_QNW_IA_BaseSpeed_5_Desc = "ความเร็วในการโจมตีตั้งต้น +75%",
    IGUI_QNW_IA_BaseSpeed_6 = "ความเร็วในการโจมตีตั้งต้น",
    IGUI_QNW_IA_BaseSpeed_6_Desc = "ความเร็วในการโจมตีตั้งต้น +100%",
    IGUI_QNW_IA_ConditionMax_1 = "ความคงทน",
    IGUI_QNW_IA_ConditionMax_1_Desc = "ความคงทน -5",
    IGUI_QNW_IA_ConditionMax_2 = "ความคงทน",
    IGUI_QNW_IA_ConditionMax_2_Desc = "ความคงทน -2",
    IGUI_QNW_IA_ConditionMax_3 = "ความคงทน",
    IGUI_QNW_IA_ConditionMax_3_Desc = "ความคงทน +2",
    IGUI_QNW_IA_ConditionMax_4 = "ความคงทน",
    IGUI_QNW_IA_ConditionMax_4_Desc = "ความคงทน +5",
    IGUI_QNW_IA_ConditionMax_5 = "ความคงทน",
    IGUI_QNW_IA_ConditionMax_5_Desc = "ความคงทน +10",
    IGUI_QNW_IA_ConditionMax_6 = "ความคงทน",
    IGUI_QNW_IA_ConditionMax_6_Desc = "ความคงทน +20",
    IGUI_QNW_IA_ConditionLowerChanceOneIn_1 = "พละกำลัง",
    IGUI_QNW_IA_ConditionLowerChanceOneIn_1_Desc = "พละกำลัง -5",
    IGUI_QNW_IA_ConditionLowerChanceOneIn_2 = "พละกำลัง",
    IGUI_QNW_IA_ConditionLowerChanceOneIn_2_Desc = "พละกำลัง -2",
    IGUI_QNW_IA_ConditionLowerChanceOneIn_3 = "พละกำลัง",
    IGUI_QNW_IA_ConditionLowerChanceOneIn_3_Desc = "พละกำลัง +2",
    IGUI_QNW_IA_ConditionLowerChanceOneIn_4 = "พละกำลัง",
    IGUI_QNW_IA_ConditionLowerChanceOneIn_4_Desc = "พละกำลัง +5",
    IGUI_QNW_IA_ConditionLowerChanceOneIn_5 = "พละกำลัง",
    IGUI_QNW_IA_ConditionLowerChanceOneIn_5_Desc = "พละกำลัง +10",
    IGUI_QNW_IA_ConditionLowerChanceOneIn_6 = "พละกำลัง",
    IGUI_QNW_IA_ConditionLowerChanceOneIn_6_Desc = "พละกำลัง +20",
    IGUI_QNW_IA_CriticalChance_1 = "อัตราโจมตีติดคริติคอล",
    IGUI_QNW_IA_CriticalChance_1_Desc = "อัตราโจมตีติดคริติคอล -10%",
    IGUI_QNW_IA_CriticalChance_2 = "อัตราโจมตีติดคริติคอล",
    IGUI_QNW_IA_CriticalChance_2_Desc = "อัตราโจมตีติดคริติคอล -5%",
    IGUI_QNW_IA_CriticalChance_3 = "อัตราโจมตีติดคริติคอล",
    IGUI_QNW_IA_CriticalChance_3_Desc = "อัตราโจมตีติดคริติคอล +5%",
    IGUI_QNW_IA_CriticalChance_4 = "อัตราโจมตีติดคริติคอล",
    IGUI_QNW_IA_CriticalChance_4_Desc = "อัตราโจมตีติดคริติคอล +10%",
    IGUI_QNW_IA_CriticalChance_5 = "อัตราโจมตีติดคริติคอล",
    IGUI_QNW_IA_CriticalChance_5_Desc = "อัตราโจมตีติดคริติคอล +20%",
    IGUI_QNW_IA_CriticalChance_6 = "อัตราโจมตีติดคริติคอล",
    IGUI_QNW_IA_CriticalChance_6_Desc = "อัตราโจมตีติดคริติคอล +50%",
    IGUI_QNW_IA_CritDmgMultiplier_1 = "ดาเมจคริติคอล",
    IGUI_QNW_IA_CritDmgMultiplier_1_Desc = "ดาเมจคริติคอล -50%",
    IGUI_QNW_IA_CritDmgMultiplier_2 = "ดาเมจคริติคอล",
    IGUI_QNW_IA_CritDmgMultiplier_2_Desc = "ดาเมจคริติคอล -25%",
    IGUI_QNW_IA_CritDmgMultiplier_3 = "ดาเมจคริติคอล",
    IGUI_QNW_IA_CritDmgMultiplier_3_Desc = "ดาเมจคริติคอล +25%",
    IGUI_QNW_IA_CritDmgMultiplier_4 = "ดาเมจคริติคอล",
    IGUI_QNW_IA_CritDmgMultiplier_4_Desc = "ดาเมจคริติคอล +50%",
    IGUI_QNW_IA_CritDmgMultiplier_5 = "ดาเมจคริติคอล",
    IGUI_QNW_IA_CritDmgMultiplier_5_Desc = "ดาเมจคริติคอล +100%",
    IGUI_QNW_IA_CritDmgMultiplier_6 = "ดาเมจคริติคอล",
    IGUI_QNW_IA_CritDmgMultiplier_6_Desc = "ดาเมจคริติคอล +200%",
    IGUI_QNW_IA_EnduranceMod_1 = "การใช้ค่าความอึด",
    IGUI_QNW_IA_EnduranceMod_1_Desc = "การใช้ค่าความอึด +40%",
    IGUI_QNW_IA_EnduranceMod_2 = "การใช้ค่าความอึด",
    IGUI_QNW_IA_EnduranceMod_2_Desc = "การใช้ค่าความอึด +15%",
    IGUI_QNW_IA_EnduranceMod_3 = "การใช้ค่าความอึด",
    IGUI_QNW_IA_EnduranceMod_3_Desc = "การใช้ค่าความอึด -15%",
    IGUI_QNW_IA_EnduranceMod_4 = "การใช้ค่าความอึด",
    IGUI_QNW_IA_EnduranceMod_4_Desc = "การใช้ค่าความอึด -40%",
    IGUI_QNW_IA_EnduranceMod_5 = "การใช้ค่าความอึด",
    IGUI_QNW_IA_EnduranceMod_5_Desc = "การใช้ค่าความอึด -65%",
    IGUI_QNW_IA_EnduranceMod_6 = "การใช้ค่าความอึด",
    IGUI_QNW_IA_EnduranceMod_6_Desc = "การใช้ค่าความอึด -90%",
    IGUI_QNW_IA_AimingTime_1 = "เวลาในการเล็ง",
    IGUI_QNW_IA_AimingTime_1_Desc = "เวลาในการเล็ง +40%",
    IGUI_QNW_IA_AimingTime_2 = "เวลาในการเล็ง",
    IGUI_QNW_IA_AimingTime_2_Desc = "เวลาในการเล็ง +15%",
    IGUI_QNW_IA_AimingTime_3 = "เวลาในการเล็ง",
    IGUI_QNW_IA_AimingTime_3_Desc = "เวลาในการเล็ง -15%",
    IGUI_QNW_IA_AimingTime_4 = "เวลาในการเล็ง",
    IGUI_QNW_IA_AimingTime_4_Desc = "เวลาในการเล็ง -40%",
    IGUI_QNW_IA_AimingTime_5 = "เวลาในการเล็ง",
    IGUI_QNW_IA_AimingTime_5_Desc = "เวลาในการเล็ง -65%",
    IGUI_QNW_IA_AimingTime_6 = "เวลาในการเล็ง",
    IGUI_QNW_IA_AimingTime_6_Desc = "เวลาในการเล็ง -90%",
    IGUI_QNW_IA_ReloadTime_1 = "เวลาในการบรรจุกระสุน",
    IGUI_QNW_IA_ReloadTime_1_Desc = "เวลาในการบรรจุกระสุน +40%",
    IGUI_QNW_IA_ReloadTime_2 = "เวลาในการบรรจุกระสุน",
    IGUI_QNW_IA_ReloadTime_2_Desc = "เวลาในการบรรจุกระสุน +15%",
    IGUI_QNW_IA_ReloadTime_3 = "เวลาในการบรรจุกระสุน",
    IGUI_QNW_IA_ReloadTime_3_Desc = "เวลาในการบรรจุกระสุน -15%",
    IGUI_QNW_IA_ReloadTime_4 = "เวลาในการบรรจุกระสุน",
    IGUI_QNW_IA_ReloadTime_4_Desc = "เวลาในการบรรจุกระสุน -40%",
    IGUI_QNW_IA_ReloadTime_5 = "เวลาในการบรรจุกระสุน",
    IGUI_QNW_IA_ReloadTime_5_Desc = "เวลาในการบรรจุกระสุน -65%",
    IGUI_QNW_IA_ReloadTime_6 = "เวลาในการบรรจุกระสุน",
    IGUI_QNW_IA_ReloadTime_6_Desc = "เวลาในการบรรจุกระสุน -90%",
    IGUI_QNW_IA_RecoilDelay_1 = "แรงถีบ",
    IGUI_QNW_IA_RecoilDelay_1_Desc = "แรงถีบ +40%",
    IGUI_QNW_IA_RecoilDelay_2 = "แรงถีบ",
    IGUI_QNW_IA_RecoilDelay_2_Desc = "แรงถีบ +15%",
    IGUI_QNW_IA_RecoilDelay_3 = "แรงถีบ",
    IGUI_QNW_IA_RecoilDelay_3_Desc = "แรงถีบ -15%",
    IGUI_QNW_IA_RecoilDelay_4 = "แรงถีบ",
    IGUI_QNW_IA_RecoilDelay_4_Desc = "แรงถีบ -40%",
    IGUI_QNW_IA_RecoilDelay_5 = "แรงถีบ",
    IGUI_QNW_IA_RecoilDelay_5_Desc = "แรงถีบ -65%",
    IGUI_QNW_IA_RecoilDelay_6 = "แรงถีบ",
    IGUI_QNW_IA_RecoilDelay_6_Desc = "แรงถีบ -90%",

    IGUI_QNW_IA_RunSpeedModifier_1 = "ความเร็วในการวิ่ง",
    IGUI_QNW_IA_RunSpeedModifier_1_Desc = "ความเร็วในการวิ่ง -0.05",
    IGUI_QNW_IA_RunSpeedModifier_2 = "ความเร็วในการวิ่ง",
    IGUI_QNW_IA_RunSpeedModifier_2_Desc = "ความเร็วในการวิ่ง -0.02",
    IGUI_QNW_IA_RunSpeedModifier_3 = "ความเร็วในการวิ่ง",
    IGUI_QNW_IA_RunSpeedModifier_3_Desc = "ความเร็วในการวิ่ง +0.02",
    IGUI_QNW_IA_RunSpeedModifier_4 = "ความเร็วในการวิ่ง",
    IGUI_QNW_IA_RunSpeedModifier_4_Desc = "ความเร็วในการวิ่ง +0.05",
    IGUI_QNW_IA_RunSpeedModifier_5 = "ความเร็วในการวิ่ง",
    IGUI_QNW_IA_RunSpeedModifier_5_Desc = "ความเร็วในการวิ่ง +0.1",
    IGUI_QNW_IA_RunSpeedModifier_6 = "ความเร็วในการวิ่ง",
    IGUI_QNW_IA_RunSpeedModifier_6_Desc = "ความเร็วในการวิ่ง +0.2",
    IGUI_QNW_IA_CombatSpeedModifier_1 = "ความเร็วในการโจมตี",
    IGUI_QNW_IA_CombatSpeedModifier_1_Desc = "ความเร็วในการโจมตี -0.05",
    IGUI_QNW_IA_CombatSpeedModifier_2 = "ความเร็วในการโจมตี",
    IGUI_QNW_IA_CombatSpeedModifier_2_Desc = "ความเร็วในการโจมตี -0.02",
    IGUI_QNW_IA_CombatSpeedModifier_3 = "ความเร็วในการโจมตี",
    IGUI_QNW_IA_CombatSpeedModifier_3_Desc = "ความเร็วในการโจมตี +0.02",
    IGUI_QNW_IA_CombatSpeedModifier_4 = "ความเร็วในการโจมตี",
    IGUI_QNW_IA_CombatSpeedModifier_4_Desc = "ความเร็วในการโจมตี +0.05",
    IGUI_QNW_IA_CombatSpeedModifier_5 = "ความเร็วในการโจมตี",
    IGUI_QNW_IA_CombatSpeedModifier_5_Desc = "ความเร็วในการโจมตี +0.1",
    IGUI_QNW_IA_CombatSpeedModifier_6 = "ความเร็วในการโจมตี",
    IGUI_QNW_IA_CombatSpeedModifier_6_Desc = "ความเร็วในการโจมตี +0.2",
    IGUI_QNW_IA_BiteDefense_1 = "ป้องกันการถูกกัด",
    IGUI_QNW_IA_BiteDefense_1_Desc = "ป้องกันการถูกกัด -10",
    IGUI_QNW_IA_BiteDefense_2 = "ป้องกันการถูกกัด",
    IGUI_QNW_IA_BiteDefense_2_Desc = "ป้องกันการถูกกัด -5",
    IGUI_QNW_IA_BiteDefense_3 = "ป้องกันการถูกกัด",
    IGUI_QNW_IA_BiteDefense_3_Desc = "ป้องกันการถูกกัด +5",
    IGUI_QNW_IA_BiteDefense_4 = "ป้องกันการถูกกัด",
    IGUI_QNW_IA_BiteDefense_4_Desc = "ป้องกันการถูกกัด +10",
    IGUI_QNW_IA_BiteDefense_5 = "ป้องกันการถูกกัด",
    IGUI_QNW_IA_BiteDefense_5_Desc = "ป้องกันการถูกกัด +20",
    IGUI_QNW_IA_BiteDefense_6 = "ป้องกันการถูกกัด",
    IGUI_QNW_IA_BiteDefense_6_Desc = "ป้องกันการถูกกัด +35",
    IGUI_QNW_IA_ScratchDefense_1 = "ป้องกันการถลอก",
    IGUI_QNW_IA_ScratchDefense_1_Desc = "ป้องกันการถลอก -10",
    IGUI_QNW_IA_ScratchDefense_2 = "ป้องกันการถลอก",
    IGUI_QNW_IA_ScratchDefense_2_Desc = "ป้องกันการถลอก -5",
    IGUI_QNW_IA_ScratchDefense_3 = "ป้องกันการถลอก",
    IGUI_QNW_IA_ScratchDefense_3_Desc = "ป้องกันการถลอก +5",
    IGUI_QNW_IA_ScratchDefense_4 = "ป้องกันการถลอก",
    IGUI_QNW_IA_ScratchDefense_4_Desc = "ป้องกันการถลอก +10",
    IGUI_QNW_IA_ScratchDefense_5 = "ป้องกันการถลอก",
    IGUI_QNW_IA_ScratchDefense_5_Desc = "ป้องกันการถลอก +20",
    IGUI_QNW_IA_ScratchDefense_6 = "ป้องกันการถลอก",
    IGUI_QNW_IA_ScratchDefense_6_Desc = "ป้องกันการถลอก +35",
    IGUI_QNW_IA_Insulation_1 = "ความอบอุ่น",
    IGUI_QNW_IA_Insulation_1_Desc = "ความอบอุ่น -0.2",
    IGUI_QNW_IA_Insulation_2 = "ความอบอุ่น",
    IGUI_QNW_IA_Insulation_2_Desc = "ความอบอุ่น -0.1",
    IGUI_QNW_IA_Insulation_3 = "ความอบอุ่น",
    IGUI_QNW_IA_Insulation_3_Desc = "ความอบอุ่น +0.1",
    IGUI_QNW_IA_Insulation_4 = "ความอบอุ่น",
    IGUI_QNW_IA_Insulation_4_Desc = "ความอบอุ่น +0.2",
    IGUI_QNW_IA_Insulation_5 = "ความอบอุ่น",
    IGUI_QNW_IA_Insulation_5_Desc = "ความอบอุ่น +0.35",
    IGUI_QNW_IA_Insulation_6 = "ความอบอุ่น",
    IGUI_QNW_IA_Insulation_6_Desc = "ความอบอุ่น +0.5",
    IGUI_QNW_IA_WindResistance_1 = "ต้านทานกระแสลม",
    IGUI_QNW_IA_WindResistance_1_Desc = "ต้านทานกระแสลม -0.2",
    IGUI_QNW_IA_WindResistance_2 = "ต้านทานกระแสลม",
    IGUI_QNW_IA_WindResistance_2_Desc = "ต้านทานกระแสลม -0.1",
    IGUI_QNW_IA_WindResistance_3 = "ต้านทานกระแสลม",
    IGUI_QNW_IA_WindResistance_3_Desc = "ต้านทานกระแสลม +0.1",
    IGUI_QNW_IA_WindResistance_4 = "ต้านทานกระแสลม",
    IGUI_QNW_IA_WindResistance_4_Desc = "ต้านทานกระแสลม +0.2",
    IGUI_QNW_IA_WindResistance_5 = "ต้านทานกระแสลม",
    IGUI_QNW_IA_WindResistance_5_Desc = "ต้านทานกระแสลม +0.35",
    IGUI_QNW_IA_WindResistance_6 = "ต้านทานกระแสลม",
    IGUI_QNW_IA_WindResistance_6_Desc = "ต้านทานกระแสลม +0.5",
    IGUI_QNW_IA_WaterResistance_1 = "ป้องกันการเปียกน้ำ",
    IGUI_QNW_IA_WaterResistance_1_Desc = "ป้องกันการเปียกน้ำ -0.2",
    IGUI_QNW_IA_WaterResistance_2 = "ป้องกันการเปียกน้ำ",
    IGUI_QNW_IA_WaterResistance_2_Desc = "ป้องกันการเปียกน้ำ -0.1",
    IGUI_QNW_IA_WaterResistance_3 = "ป้องกันการเปียกน้ำ",
    IGUI_QNW_IA_WaterResistance_3_Desc = "ป้องกันการเปียกน้ำ +0.1",
    IGUI_QNW_IA_WaterResistance_4 = "ป้องกันการเปียกน้ำ",
    IGUI_QNW_IA_WaterResistance_4_Desc = "ป้องกันการเปียกน้ำ +0.2",
    IGUI_QNW_IA_WaterResistance_5 = "ป้องกันการเปียกน้ำ",
    IGUI_QNW_IA_WaterResistance_5_Desc = "ป้องกันการเปียกน้ำ +0.35",
    IGUI_QNW_IA_WaterResistance_6 = "ป้องกันการเปียกน้ำ",
    IGUI_QNW_IA_WaterResistance_6_Desc = "ป้องกันการเปียกน้ำ +0.5",
    IGUI_QNW_IA_StressChange_1 = "ความเครียด",
    IGUI_QNW_IA_StressChange_1_Desc = "ความเครียด +40",
    IGUI_QNW_IA_StressChange_2 = "ความเครียด",
    IGUI_QNW_IA_StressChange_2_Desc = "ความเครียด +20",
    IGUI_QNW_IA_StressChange_3 = "ความเครียด",
    IGUI_QNW_IA_StressChange_3_Desc = "ความเครียด -20",
    IGUI_QNW_IA_StressChange_4 = "ความเครียด",
    IGUI_QNW_IA_StressChange_4_Desc = "ความเครียด -40",
    IGUI_QNW_IA_StressChange_5 = "ความเครียด",
    IGUI_QNW_IA_StressChange_5_Desc = "ความเครียด -60",
    IGUI_QNW_IA_StressChange_6 = "ความเครียด",
    IGUI_QNW_IA_StressChange_6_Desc = "ความเครียด -80",
    IGUI_QNW_IA_BoredomChange_1 = "ความเบื่อหน่าย",
    IGUI_QNW_IA_BoredomChange_1_Desc = "ความเบื่อหน่าย +40",
    IGUI_QNW_IA_BoredomChange_2 = "ความเบื่อหน่าย",
    IGUI_QNW_IA_BoredomChange_2_Desc = "ความเบื่อหน่าย +20",
    IGUI_QNW_IA_BoredomChange_3 = "ความเบื่อหน่าย",
    IGUI_QNW_IA_BoredomChange_3_Desc = "ความเบื่อหน่าย -20",
    IGUI_QNW_IA_BoredomChange_4 = "ความเบื่อหน่าย",
    IGUI_QNW_IA_BoredomChange_4_Desc = "ความเบื่อหน่าย -40",
    IGUI_QNW_IA_BoredomChange_5 = "ความเบื่อหน่าย",
    IGUI_QNW_IA_BoredomChange_5_Desc = "ความเบื่อหน่าย -60",
    IGUI_QNW_IA_BoredomChange_6 = "ความเบื่อหน่าย",
    IGUI_QNW_IA_BoredomChange_6_Desc = "ความเบื่อหน่าย -80",
    IGUI_QNW_IA_UnhappyChange_1 = "ความทุกข์ใจ",
    IGUI_QNW_IA_UnhappyChange_1_Desc = "ความทุกข์ใจ +40",
    IGUI_QNW_IA_UnhappyChange_2 = "ความทุกข์ใจ",
    IGUI_QNW_IA_UnhappyChange_2_Desc = "ความทุกข์ใจ +20",
    IGUI_QNW_IA_UnhappyChange_3 = "ความทุกข์ใจ",
    IGUI_QNW_IA_UnhappyChange_3_Desc = "ความทุกข์ใจ -20",
    IGUI_QNW_IA_UnhappyChange_4 = "ความทุกข์ใจ",
    IGUI_QNW_IA_UnhappyChange_4_Desc = "ความทุกข์ใจ -40",
    IGUI_QNW_IA_UnhappyChange_5 = "ความทุกข์ใจ",
    IGUI_QNW_IA_UnhappyChange_5_Desc = "ความทุกข์ใจ -60",
    IGUI_QNW_IA_UnhappyChange_6 = "ความทุกข์ใจ",
    IGUI_QNW_IA_UnhappyChange_6_Desc = "ความทุกข์ใจ -80",
    IGUI_QNW_IA_PanicChange_1 = "ตื่นตระหนก",
    IGUI_QNW_IA_PanicChange_1_Desc = "ตื่นตระหนก +40",
    IGUI_QNW_IA_PanicChange_2 = "ตื่นตระหนก",
    IGUI_QNW_IA_PanicChange_2_Desc = "ตื่นตระหนก +20",
    IGUI_QNW_IA_PanicChange_3 = "ตื่นตระหนก",
    IGUI_QNW_IA_PanicChange_3_Desc = "ตื่นตระหนก -20",
    IGUI_QNW_IA_PanicChange_4 = "ตื่นตระหนก",
    IGUI_QNW_IA_PanicChange_4_Desc = "ตื่นตระหนก -40",
    IGUI_QNW_IA_PanicChange_5 = "ตื่นตระหนก",
    IGUI_QNW_IA_PanicChange_5_Desc = "ตื่นตระหนก -60",
    IGUI_QNW_IA_PanicChange_6 = "ตื่นตระหนก",
    IGUI_QNW_IA_PanicChange_6_Desc = "ตื่นตระหนก -80",
    IGUI_QNW_IA_FatigueChange_1 = "ความอ่อนเพลีย",
    IGUI_QNW_IA_FatigueChange_1_Desc = "ความอ่อนเพลีย +40",
    IGUI_QNW_IA_FatigueChange_2 = "ความอ่อนเพลีย",
    IGUI_QNW_IA_FatigueChange_2_Desc = "ความอ่อนเพลีย +20",
    IGUI_QNW_IA_FatigueChange_3 = "ความอ่อนเพลีย",
    IGUI_QNW_IA_FatigueChange_3_Desc = "ความอ่อนเพลีย -20",
    IGUI_QNW_IA_FatigueChange_4 = "ความอ่อนเพลีย",
    IGUI_QNW_IA_FatigueChange_4_Desc = "ความอ่อนเพลีย -40",
    IGUI_QNW_IA_FatigueChange_5 = "ความอ่อนเพลีย",
    IGUI_QNW_IA_FatigueChange_5_Desc = "ความอ่อนเพลีย -60",
    IGUI_QNW_IA_FatigueChange_6 = "ความอ่อนเพลีย",
    IGUI_QNW_IA_FatigueChange_6_Desc = "ความอ่อนเพลีย -80",

    IGUI_QNW_IA_Hades_7 = "Hades",
    IGUI_QNW_IA_Hades_7_Desc = "โจมตีครั้งเดียวตาย",
    IGUI_QNW_IA_Hercules_7 = "Hercules",
    IGUI_QNW_IA_Hercules_7_Desc = "ทำให้ศัตรูล้มลงเสมอ",
    IGUI_QNW_IA_Hephaestus_7 = "Hephaestus",
    IGUI_QNW_IA_Hephaestus_7_Desc = "ทำให้ศัตรูติดไฟ",
    IGUI_QNW_IA_Gaia_7 = "Gaia",
    IGUI_QNW_IA_Gaia_7_Desc = "คงสภาพอาวุธ",
    IGUI_QNW_IA_Poseidon_7 = "Poseidon",
    IGUI_QNW_IA_Poseidon_7_Desc = "เติมกระสุน",
}
